<svg width="62" height="62" viewBox="0 0 62 62" fill="none" xmlns="http://www.w3.org/2000/svg">
<path d="M49 45V9C49 6.87827 48.1571 4.84344 46.6568 3.34315C45.1565 1.84285 43.1217 1 41 1H8.19995C12.6 1 15 4.6 15 9V53C15 55.1217 15.8428 57.1566 17.3431 58.6569C18.8434 60.1571 20.8782 61 23 61" stroke="#009EB4" stroke-width="2" stroke-linecap="round" stroke-linejoin="round"/>
<path d="M8.2 1C3.8 1 1 4.6 1 9H15M53 45H23C25.1217 45 27.1566 45.8429 28.6569 47.3431C30.1571 48.8434 31 50.8783 31 53C31 55.1217 30.1571 57.1566 28.6569 58.6569C27.1566 60.1571 25.1217 61 23 61H53C55.1217 61 57.1566 60.1571 58.6569 58.6569C60.1571 57.1566 61 55.1217 61 53C61 50.8783 60.1571 48.8434 58.6569 47.3431C57.1566 45.8429 55.1217 45 53 45Z" stroke="#009EB4" stroke-width="2" stroke-linecap="round" stroke-linejoin="round"/>
<path d="M25 33H39M25 13H39H25ZM25 23H39H25Z" stroke="#009EB4" stroke-width="2" stroke-linecap="round" stroke-linejoin="round"/>
</svg>
