<svg width="62" height="62" viewBox="0 0 62 62" fill="none" xmlns="http://www.w3.org/2000/svg">
<path d="M25.2 1.00259C24.1327 0.974977 23.0708 1.16863 22.077 1.57213C21.0832 1.97563 20.1775 2.58082 19.4134 3.35204C18.6492 4.12325 18.042 5.04489 17.6275 6.06264C17.213 7.08039 16.9996 8.17367 17 9.27805V19.6224C14 19.6224 13.7 23.5532 13.7 24.4842C13.7 25.4152 14.4 29.9667 17.5 29.9667C18.5149 34.3306 21.0867 38.1364 24.7 40.6214C26.5786 41.9062 28.7518 42.6555 31 42.7937C33.0236 42.7863 34.9897 42.0962 36.5999 40.8283C40.1858 38.2225 42.7423 34.3658 43.7999 29.9667C46.7999 29.9667 48 25.7255 48 24.7945C48 23.8636 48 19.7258 45 19.6224V9.27805C45 3.58867 40.2999 1.00259 36.2999 1.00259" stroke="#009EB4" stroke-width="2" stroke-miterlimit="10" stroke-linecap="round" stroke-linejoin="round"/>
<path d="M22.6 39.0688C22.6 41.1378 23.6 43.4136 12.6 45.4826C1.6 47.5515 1 56.8618 1 56.8618V60.9997H61V56.8618C61 56.8618 61 47.8619 48.6 45.4826C37.9 43.4136 38.6 41.2412 38.6 39.1723M31 42.3792V60.9997" stroke="#009EB4" stroke-width="2" stroke-miterlimit="10" stroke-linecap="round" stroke-linejoin="round"/>
<path d="M25 52.7238H17M21 48.5859V56.8617V48.5859Z" stroke="#009EB4" stroke-width="2" stroke-miterlimit="10" stroke-linecap="round" stroke-linejoin="round"/>
<path d="M17.4 29.968C21.4548 27.2655 26.1765 25.8289 31 25.8301C35.5892 25.7251 40.0852 27.1786 43.8 29.968M17 16.2095L24.4 11.8647C25.4333 11.3475 28 10.313 31 10.313C34 10.313 36.5667 11.3475 37.6 11.8647L45 15.4854" stroke="#009EB4" stroke-width="2" stroke-miterlimit="10" stroke-linecap="round" stroke-linejoin="round"/>
<path d="M38 50.6549C38.5523 50.6549 39 50.1917 39 49.6204C39 49.0491 38.5523 48.5859 38 48.5859C37.4477 48.5859 37 49.0491 37 49.6204C37 50.1917 37.4477 50.6549 38 50.6549Z" stroke="#009EB4" stroke-width="2" stroke-miterlimit="10" stroke-linecap="round" stroke-linejoin="round"/>
</svg>
