<svg width="23" height="22" viewBox="0 0 23 22" fill="none" xmlns="http://www.w3.org/2000/svg">
<path d="M1 11H22M22 11L12.1702 21M22 11L12.1702 1" stroke="#009EB4" stroke-width="2" stroke-linecap="round" stroke-linejoin="round"/>
</svg>
